Text Mining on Meta Data of the New Submitted CS Paper from Archive
…
## [1] TRUE

Text Mining on Title of Papers

title.exist = df.existed$title
title_df = tibble(line = 1:length(title.exist), text = title.exist)%>%
  unnest_tokens(word,text)%>% # Broken the titles into words
  anti_join(stop_words)       # Remove the stop words

## Joining, by = "word"

head(title_df, n = 30)

## # A tibble: 30 x 2
##     line word         
##    <int> <chr>        
##  1     1 tractable    
##  2     1 algorithm    
##  3     1 finite       
##  4     1 horizon      
##  5     1 continuous   
##  6     1 reinforcement
##  7     1 learning     
##  8     2 identifying  
##  9     2 dns          
## 10     2 tunneled     
## # ... with 20 more rows
…
Based on the wordcloud and the topic models on paper titles, we can see that deep learning with neural network is the hottest topic recently. Moreover, the study of the adversarial problem of the graphs or image deep learning is really popular

Text Mining on Description of the Papers

des.exist = df.existed$description
des_df = tibble(line = 1:length(des.exist), text = des.exist)%>%
  unnest_tokens(word,text)%>% # Broken the titles into words
  anti_join(stop_words)       # Remove the stop words

## Joining, by = "word"

head(des_df, n = 30)

## # A tibble: 30 x 2
##     line word           
##    <int> <chr>          
##  1     1 finite         
##  2     1 horizon        
##  3     1 continuous     
##  4     1 reinforcement  
##  5     1 learning       
##  6     1 ourcontribution
##  7     1 fold           
##  8     1 tractable      
##  9     1 algorithm      
## 10     1 based          
## # ... with 20 more rows
…
